Reshaping meteorological data for meteoland
…
For the interpolation of meteorological variables on our target
locations, we need meteorological data for a reference set of locations.
In meteoland this is a sf object with the
spatial coordinates of our reference locations (usually meteorological
stations) and daily values of the meteorological variables needed to
perform the interpolation, i.e.:

meteoland_meteo_example
#> Simple feature collection with 5652 features and 18 fields
#> Geometry type: POINT
#> Dimension:     XY
#> Bounding box:  xmin: 0.30565 ymin: 40.55786 xmax: 3.18165 ymax: 42.77011
#> Geodetic CRS:  WGS 84
#> # A tibble: 5,652 × 19
#>    dates               service  statio…¹ stati…² stati…³ eleva…⁴ MeanT…⁵ MinTe…⁶
#>  * <dttm>              <chr>    <chr>    <chr>   <chr>     <dbl>   <dbl>   <dbl>
#>  1 2022-04-01 00:00:00 meteocat C6       Castel… Lleida     264      7.3     1.4
#>  2 2022-04-01 00:00:00 meteocat C7       Tàrrega Lleida     427      6.2     0.3
#>  3 2022-04-01 00:00:00 meteocat C8       Cervera Lleida     554      4.8    -0.7
#>  4 2022-04-01 00:00:00 meteocat C9       Mas de… Tarrag…    240      7.7     5  
#>  5 2022-04-01 00:00:00 meteocat CC       Orís    Barcel…    626      4.6    -1  
#>  6 2022-04-01 00:00:00 meteocat CD       la Seu… Lleida     849      2.4    -2.2
#>  7 2022-04-01 00:00:00 meteocat CE       els Ho… Barcel…    316      8.2     2.3
#>  8 2022-04-01 00:00:00 meteocat CG       Molló … Girona    1405     -2.5    -5.9
#>  9 2022-04-01 00:00:00 meteocat CI       Sant P… Girona     852      2.6    -2.2
#> 10 2022-04-01 00:00:00 meteocat CJ       Organyà Lleida     566.     4.8     1.1
#> # … with 5,642 more rows, 11 more variables: MaxTemperature <dbl>,
#> #   MeanRelativeHumidity <dbl>, MinRelativeHumidity <dbl>,
#> #   MaxRelativeHumidity <dbl>, Precipitation <dbl>, WindDirection <dbl>,
#> #   WindSpeed <dbl>, Radiation <dbl>, geom <POINT [°]>, aspect <dbl>,
#> #   slope <dbl>, and abbreviated variable names ¹​stationID, ²​station_name,
#> #   ³​station_province, ⁴​elevation, ⁵​MeanTemperature, ⁶​MinTemperature
…
points_meteo_reference
#> Simple feature collection with 3630 features and 16 fields
#> Geometry type: POINT
#> Dimension:     XY
#> Bounding box:  xmin: 1.6762 ymin: 41.65133 xmax: 1.781988 ymax: 41.75712
#> Geodetic CRS:  WGS 84
#> # A tibble: 3,630 × 17
#>             geometry dates      MeanTemperature statio…¹ MinTe…² MaxTe…³ Preci…⁴
#>          <POINT [°]> <date>               <dbl> <chr>      <dbl>   <dbl>   <dbl>
#>  1 (1.6762 41.75712) 2022-04-01            6.24 c(1.676…   0.541    9.94       0
#>  2 (1.6762 41.75712) 2022-04-02            6.64 c(1.676…  -1.50    11.9        0
#>  3 (1.6762 41.75712) 2022-04-03            4.82 c(1.676…  -3.13     9.98       0
#>  4 (1.6762 41.75712) 2022-04-04            6.53 c(1.676…  -1.59    11.8        0
#>  5 (1.6762 41.75712) 2022-04-05            9.05 c(1.676…  -1.51    15.9        0
#>  6 (1.6762 41.75712) 2022-04-06           11.8  c(1.676…   3.70    17.0        0
#>  7 (1.6762 41.75712) 2022-04-07           14.1  c(1.676…   3.67    20.8        0
#>  8 (1.6762 41.75712) 2022-04-08           15.1  c(1.676…   7.71    19.8        0
#>  9 (1.6762 41.75712) 2022-04-09           13.6  c(1.676…   6.79    18.1        0
#> 10 (1.6762 41.75712) 2022-04-10           11.6  c(1.676…   4.94    15.9        0
#> # … with 3,620 more rows, 10 more variables: MeanRelativeHumidity <dbl>,
#> #   MinRelativeHumidity <dbl>, MaxRelativeHumidity <dbl>, Radiation <dbl>,
#> #   WindSpeed <dbl>, WindDirection <dbl>, PET <dbl>, elevation <dbl>,
#> #   slope <dbl>, aspect <dbl>, and abbreviated variable names ¹​stationID,
#> #   ²​MinTemperature, ³​MaxTemperature, ⁴​Precipitation
…
